<?xml version="1.0" encoding="utf-8"?>
<!-- Generator: Adobe Illustrator 18.0.0, SVG Export Plug-In . SVG Version: 6.00 Build 0)  -->
<!DOCTYPE svg PUBLIC "-//W3C//DTD SVG 1.1//EN" "http://www.w3.org/Graphics/SVG/1.1/DTD/svg11.dtd">
<svg version="1.1" id="Layer_1" xmlns="http://www.w3.org/2000/svg" xmlns:xlink="http://www.w3.org/1999/xlink" x="0px" y="0px"
	 viewBox="0 0 40 35" enable-background="new 0 0 40 35" xml:space="preserve">
<g>
	<polygon fill="#5089C0" points="40,26 38.5,26 38.5,25 39,25 39,24.5 40,24.5 	"/>
	<path fill="#5089C0" d="M37,26h-2v-1h2V26z M33,26h-2v-1h2V26z M29,26h-2v-1h2V26z M25,26h-2v-1h2V26z M17,26h-2v-1h2V26z M13,26
		h-2v-1h2V26z M9,26H7v-1h2V26z M5,26H3v-1h2V26z"/>
	<polygon fill="#5089C0" points="1.5,26 0,26 0,24.5 1,24.5 1,25 1.5,25 	"/>
	<path fill="#5089C0" d="M1,22H0v-2h1V22z M1,18H0v-2h1V18z M1,14H0v-2h1V14z"/>
	<polygon fill="#5089C0" points="1,9.5 0,9.5 0,8 1.5,8 1.5,9 1,9 	"/>
	<path fill="#5089C0" d="M37,9h-2V8h2V9z M33,9h-2V8h2V9z M29,9h-2V8h2V9z M25,9h-2V8h2V9z M21,9h-2V8h2V9z M17,9h-2V8h2V9z M13,9
		h-2V8h2V9z M9,9H7V8h2V9z M5,9H3V8h2V9z"/>
	<polygon fill="#5089C0" points="40,9.5 39,9.5 39,9 38.5,9 38.5,8 40,8 	"/>
	<path fill="#5089C0" d="M40,22h-1v-2h1V22z M40,18h-1v-2h1V18z M40,14h-1v-2h1V14z"/>
</g>
<polygon fill="#5089C0" points="23.9,20.7 20.5,17.3 17.1,20.7 17.8,21.4 20,19.2 20,29 21,29 21,19.2 23.2,21.4 "/>
<polygon fill="#5089C0" points="17.1,29.6 20.5,33 23.9,29.6 23.2,28.9 21,31.1 21,21 20,21 20,31.1 17.8,28.9 "/>
</svg>
