<?xml version="1.0" standalone="no"?>
<!DOCTYPE svg PUBLIC "-//W3C//DTD SVG 1.1//EN" "http://www.w3.org/Graphics/SVG/1.1/DTD/svg11.dtd">
<svg xmlns="http://www.w3.org/2000/svg">
<metadata>Copyright (C) 2014 by original authors @ fontello.com</metadata>
<defs>
<font id="golf" horiz-adv-x="1000" >
<font-face font-family="golf" font-weight="400" font-stretch="normal" units-per-em="1000" ascent="850" descent="-150" />
<missing-glyph horiz-adv-x="1000" />
<glyph glyph-name="golf-cart" unicode="&#xe800;" d="m136-166c-42 9-78 37-96 75-8 18-9 25-9 55 0 31 1 38 9 56 5 11 18 28 28 38 67 66 177 46 218-38 10-22 11-27 11-56 0-33-6-51-25-79-27-39-88-62-136-51z m57 75c19 9 35 36 35 60 0 10-11 32-22 41-14 13-28 18-48 16-33-4-58-30-58-62 0-46 50-76 93-55z m747-76c-42 9-79 36-97 73-11 22-12 26-12 58 0 31 1 38 9 55 27 57 89 88 151 75 30-6 50-17 72-42 54-58 44-147-20-195-29-21-70-31-103-24z m57 78c32 22 39 61 16 92-19 24-55 30-83 14-38-22-39-81-2-105 18-12 51-12 69-1z m-653 78c-6 41-28 80-59 108-39 35-68 41-192 41l-82 0 0 10c0 16 17 64 28 78 29 39 71 65 133 80l36 10 13 34c6 20 31 94 56 165 24 71 45 132 47 135 3 7 32 96 32 101 0 3-12 4-35 4l-36 0 0 40 0 41 349-1 350-1 1-188 1-189 55 0c54 0 55 0 64-8 10-11 11-20 2-31-7-8-8-8-64-8l-57 0 0-43 0-43 17 0c81 0 133-23 155-68 17-34 20-58 20-175l0-108-16 0-16 0-3 22c-17 94-109 160-204 147-58-8-101-38-136-92-9-14-20-51-20-64l0-13-218 0-219 0-2 16z m312 128l1 74 65 0c76 0 101 5 134 25 25 14 48 43 58 71 7 20 7 28 9 230 0 114 0 215-1 223l-1 15-249 0c-136 0-248 0-248-1 0 0-32-92-70-204-38-112-71-208-73-213l-3-10 26 2 26 3 8-23c3-12 12-40 19-62 7-22 24-75 38-118 14-42 25-79 25-81 0-3 30-5 117-5 64-1 117-1 118 0 1 0 1 34 1 74z m-266 142l-7 26 61 60c54 54 60 61 63 75 2 14 2 17-5 25-9 12-9 24 0 33 15 15 24 10 69-33 47-46 53-55 50-65-6-18-25-23-41-11-6 4-13 6-25 5-16-2-18-3-87-71-39-39-71-70-71-70 0 0-3 11-7 26z m259-15c-8 10-9 22-2 31 7 8 8 9 76 10 103 3 106 5 106 100 0 57 0 59 9 67 10 10 20 11 31 2 8-6 8-9 9-59 2-52-2-85-12-103-6-13-25-30-44-41-16-9-17-10-93-11-60-1-77 0-80 4z" horiz-adv-x="1165" />
<glyph glyph-name="golf-ball-tee" unicode="&#xe801;" d="m326 848c-179-5-324-152-324-332 0-183 149-332 332-332 183 0 332 149 332 332 0 183-149 332-332 332-3 0-6 0-8 0z m8-60c151 0 272-121 272-272 0-151-121-272-272-272-151 0-272 121-272 272 0 151 121 272 272 272z m135-90c114-218-128-383-128-383 199 0 298 229 128 383z m-367-522l0-65c0 0 174 0 174-260l95 0c0 260 174 260 174 260l0 65c0 0-68-45-217-45-149 0-226 45-226 45z" horiz-adv-x="668" />
</font>
</defs>
</svg>