[
    {
        "name": "logger",
        "type": "null",
        "value": ""
    },
    {
        "name": "routes",
        "type": "class",
        "value": "Symfony\\Component\\Routing\\RouteCollection"
    },
    {
        "name": "controllers",
        "type": "class",
        "value": "Silex\\ControllerCollection"
    },
    {
        "name": "controllers_factory",
        "type": "class",
        "value": "Silex\\ControllerCollection"
    },
    {
        "name": "route_class",
        "type": "string",
        "value": "Silex\\Route"
    },
    {
        "name": "route_factory",
        "type": "class",
        "value": "Silex\\Route"
    },
    {
        "name": "exception_handler",
        "type": "class",
        "value": "Silex\\ExceptionHandler"
    },
    {
        "name": "dispatcher_class",
        "type": "string",
        "value": "Symfony\\Component\\EventDispatcher\\EventDispatcher"
    },
    {
        "name": "dispatcher",
        "type": "class",
        "value": "Symfony\\Component\\EventDispatcher\\EventDispatcher"
    },
    {
        "name": "callback_resolver",
        "type": "class",
        "value": "Silex\\CallbackResolver"
    },
    {
        "name": "resolver",
        "type": "class",
        "value": "Silex\\ServiceControllerResolver"
    },
    {
        "name": "kernel",
        "type": "class",
        "value": "Symfony\\Component\\HttpKernel\\HttpKernel"
    },
    {
        "name": "request_stack",
        "type": "class",
        "value": "Symfony\\Component\\HttpFoundation\\RequestStack"
    },
    {
        "name": "request_context",
        "type": "class",
        "value": "Symfony\\Component\\Routing\\RequestContext"
    },
    {
        "name": "url_matcher",
        "type": "class",
        "value": "Silex\\RedirectableUrlMatcher"
    },
    {
        "name": "request_error",
        "type": "closure",
        "value": ""
    },
    {
        "name": "request",
        "type": "class",
        "value": "Symfony\\Component\\HttpFoundation\\Request"
    },
    {
        "name": "request.http_port",
        "type": "int",
        "value": 80
    },
    {
        "name": "request.https_port",
        "type": "int",
        "value": 443
    },
    {
        "name": "debug",
        "type": "bool",
        "value": true
    },
    {
        "name": "charset",
        "type": "string",
        "value": "UTF-8"
    },
    {
        "name": "locale",
        "type": "string",
        "value": "en"
    },
    {
        "name": "config.api.version",
        "type": "string",
        "value": "v1"
    },
    {
        "name": "config.api.endpoint",
        "type": "string",
        "value": "\/"
    },
    {
        "name": "config.debug",
        "type": "bool",
        "value": true
    },
    {
        "name": "config.orm.auto_generate_proxies",
        "type": "int",
        "value": 0
    },
    {
        "name": "config.legacy_url",
        "type": "string",
        "value": "http:\/\/development.foreupsoftware.com"
    },
    {
        "name": "config.cache",
        "type": "array",
        "value": ""
    },
    {
        "name": "config.db.options",
        "type": "array",
        "value": ""
    },
    {
        "name": "config.jwt_secretKey",
        "type": "string",
        "value": "OOVlddU82kBDgVvnCrlf8LJNlY2BY16I"
    },
    {
        "name": "config.jwt_issuer",
        "type": "string",
        "value": "development.foreupsoftware.com"
    },
    {
        "name": "config.jwt_audience",
        "type": "string",
        "value": "development.foreupsoftware.com"
    },
    {
        "name": "config.jwt_expiresAfter",
        "type": "int",
        "value": 2592000
    },
    {
        "name": "config.jwt_cookie_expire",
        "type": "int",
        "value": 2592000
    },
    {
        "name": "config.jwt_cookie_path",
        "type": "string",
        "value": "\/"
    },
    {
        "name": "config.jwt_cookie_domain",
        "type": "string",
        "value": "development.foreupsoftware.com"
    },
    {
        "name": "config.jwt_cookie_secure",
        "type": "bool",
        "value": true
    },
    {
        "name": "config.permissions",
        "type": "array",
        "value": ""
    },
    {
        "name": "db.default_options",
        "type": "array",
        "value": ""
    },
    {
        "name": "dbs.options.initializer",
        "type": "closure",
        "value": ""
    },
    {
        "name": "dbs",
        "type": "container",
        "value": [
            {
                "name": "default",
                "type": "class",
                "value": "Doctrine\\DBAL\\Connection"
            }
        ]
    },
    {
        "name": "dbs.config",
        "type": "container",
        "value": [
            {
                "name": "default",
                "type": "class",
                "value": "Doctrine\\DBAL\\Configuration"
            }
        ]
    },
    {
        "name": "dbs.event_manager",
        "type": "container",
        "value": [
            {
                "name": "default",
                "type": "class",
                "value": "Doctrine\\Common\\EventManager"
            }
        ]
    },
    {
        "name": "db",
        "type": "class",
        "value": "Doctrine\\DBAL\\Connection"
    },
    {
        "name": "db.config",
        "type": "class",
        "value": "Doctrine\\DBAL\\Configuration"
    },
    {
        "name": "db.event_manager",
        "type": "class",
        "value": "Doctrine\\Common\\EventManager"
    },
    {
        "name": "db.options",
        "type": "array",
        "value": ""
    },
    {
        "name": "orm.proxies_dir",
        "type": "string",
        "value": "\/var\/www\/development.foreupsoftware.com\/fu\/api_rest\/rest\/application\/..\/models\/proxies"
    },
    {
        "name": "orm.proxies_namespace",
        "type": "string",
        "value": "DoctrineProxies"
    },
    {
        "name": "orm.auto_generate_proxies",
        "type": "int",
        "value": 0
    },
    {
        "name": "orm.default_cache",
        "type": "array",
        "value": ""
    },
    {
        "name": "orm.custom.functions.string",
        "type": "array",
        "value": ""
    },
    {
        "name": "orm.custom.functions.numeric",
        "type": "array",
        "value": ""
    },
    {
        "name": "orm.custom.functions.datetime",
        "type": "array",
        "value": ""
    },
    {
        "name": "orm.custom.hydration_modes",
        "type": "array",
        "value": ""
    },
    {
        "name": "orm.class_metadata_factory_name",
        "type": "string",
        "value": "Doctrine\\ORM\\Mapping\\ClassMetadataFactory"
    },
    {
        "name": "orm.default_repository_class",
        "type": "string",
        "value": "Doctrine\\ORM\\EntityRepository"
    },
    {
        "name": "orm.em.default_options",
        "type": "array",
        "value": ""
    },
    {
        "name": "orm.ems.options.initializer",
        "type": "closure",
        "value": ""
    },
    {
        "name": "orm.em_name_from_param_key",
        "type": "closure",
        "value": ""
    },
    {
        "name": "orm.ems",
        "type": "container",
        "value": [
            {
                "name": "default",
                "type": "class",
                "value": "Doctrine\\ORM\\EntityManager"
            }
        ]
    },
    {
        "name": "orm.ems.config",
        "type": "container",
        "value": [
            {
                "name": "default",
                "type": "class",
                "value": "Doctrine\\ORM\\Configuration"
            }
        ]
    },
    {
        "name": "orm.cache.configurer",
        "type": "closure",
        "value": ""
    },
    {
        "name": "orm.cache.locator",
        "type": "closure",
        "value": ""
    },
    {
        "name": "orm.cache.factory.backing_memcache",
        "type": "closure",
        "value": ""
    },
    {
        "name": "orm.cache.factory.memcache",
        "type": "closure",
        "value": ""
    },
    {
        "name": "orm.cache.factory.backing_memcached",
        "type": "closure",
        "value": ""
    },
    {
        "name": "orm.cache.factory.memcached",
        "type": "closure",
        "value": ""
    },
    {
        "name": "orm.cache.factory.backing_redis",
        "type": "closure",
        "value": ""
    },
    {
        "name": "orm.cache.factory.redis",
        "type": "closure",
        "value": ""
    },
    {
        "name": "orm.cache.factory.array",
        "type": "closure",
        "value": ""
    },
    {
        "name": "orm.cache.factory.apc",
        "type": "closure",
        "value": ""
    },
    {
        "name": "orm.cache.factory.xcache",
        "type": "closure",
        "value": ""
    },
    {
        "name": "orm.cache.factory.filesystem",
        "type": "closure",
        "value": ""
    },
    {
        "name": "orm.cache.factory",
        "type": "closure",
        "value": ""
    },
    {
        "name": "orm.mapping_driver_chain.locator",
        "type": "closure",
        "value": ""
    },
    {
        "name": "orm.mapping_driver_chain.factory",
        "type": "closure",
        "value": ""
    },
    {
        "name": "orm.add_mapping_driver",
        "type": "closure",
        "value": ""
    },
    {
        "name": "orm.generate_psr0_mapping",
        "type": "closure",
        "value": ""
    },
    {
        "name": "orm.strategy.naming",
        "type": "class",
        "value": "Doctrine\\ORM\\Mapping\\DefaultNamingStrategy"
    },
    {
        "name": "orm.strategy.quote",
        "type": "class",
        "value": "Doctrine\\ORM\\Mapping\\DefaultQuoteStrategy"
    },
    {
        "name": "orm.entity_listener_resolver",
        "type": "class",
        "value": "Doctrine\\ORM\\Mapping\\DefaultEntityListenerResolver"
    },
    {
        "name": "orm.repository_factory",
        "type": "class",
        "value": "Doctrine\\ORM\\Repository\\DefaultRepositoryFactory"
    },
    {
        "name": "orm.em",
        "type": "class",
        "value": "Doctrine\\ORM\\EntityManager"
    },
    {
        "name": "orm.em.config",
        "type": "class",
        "value": "Doctrine\\ORM\\Configuration"
    },
    {
        "name": "orm.em.options",
        "type": "array",
        "value": ""
    },
    {
        "name": "jwt_token",
        "type": "class",
        "value": "foreup\\auth\\json_web_token"
    },
    {
        "name": "courseSettings",
        "type": "class",
        "value": "foreup\\rest\\models\\services\\CourseSettingsService"
    },
    {
        "name": "teesheetStats",
        "type": "class",
        "value": "foreup\\rest\\models\\services\\TeesheetStatsService"
    },
    {
        "name": "legacySaleService",
        "type": "class",
        "value": "foreup\\rest\\models\\services\\LegacySaleService"
    },
    {
        "name": "legacyTeetimeService",
        "type": "class",
        "value": "foreup\\rest\\models\\services\\LegacyTeetimeService"
    },
    {
        "name": "legacyCartService",
        "type": "class",
        "value": "foreup\\rest\\models\\services\\LegacyCartService"
    },
    {
        "name": "statementUtilities",
        "type": "class",
        "value": "foreup\\rest\\models\\services\\StatementUtilities"
    },
    {
        "name": "orm.ems.options",
        "type": "array",
        "value": ""
    },
    {
        "name": "orm.ems.default",
        "type": "string",
        "value": "default"
    },
    {
        "name": "orm.cache.instances.default.metadata",
        "type": "class",
        "value": "Doctrine\\Common\\Cache\\FilesystemCache"
    },
    {
        "name": "orm.cache.instances.default.query",
        "type": "class",
        "value": "Doctrine\\Common\\Cache\\FilesystemCache"
    },
    {
        "name": "orm.cache.instances.default.result",
        "type": "class",
        "value": "Doctrine\\Common\\Cache\\FilesystemCache"
    },
    {
        "name": "orm.cache.instances.default.hydration",
        "type": "class",
        "value": "Doctrine\\Common\\Cache\\FilesystemCache"
    },
    {
        "name": "orm.mapping_driver_chain.instances.default",
        "type": "class",
        "value": "Doctrine\\Common\\Persistence\\Mapping\\Driver\\MappingDriverChain"
    },
    {
        "name": "dbs.options",
        "type": "array",
        "value": ""
    },
    {
        "name": "dbs.default",
        "type": "string",
        "value": "default"
    },
    {
        "name": "courses.controller",
        "type": "class",
        "value": "foreup\\rest\\controllers\\courses"
    },
    {
        "name": "sales.controller",
        "type": "class",
        "value": "foreup\\rest\\controllers\\sales"
    },
    {
        "name": "teesheets.controller",
        "type": "class",
        "value": "foreup\\rest\\controllers\\teesheets"
    },
    {
        "name": "modules.controller",
        "type": "class",
        "value": "foreup\\rest\\controllers\\modules"
    },
    {
        "name": "marketing_campaigns.controller",
        "type": "class",
        "value": "foreup\\rest\\controllers\\marketing_campaigns"
    },
    {
        "name": "tokens.controller",
        "type": "class",
        "value": "foreup\\rest\\controllers\\tokens"
    },
    {
        "name": "customer_images.controller",
        "type": "class",
        "value": "foreup\\rest\\controllers\\customer_images"
    },
    {
        "name": "tokensValidation.controller",
        "type": "class",
        "value": "foreup\\rest\\controllers\\tokens"
    },
    {
        "name": "scores.controller",
        "type": "class",
        "value": "foreup\\rest\\controllers\\scores"
    },
    {
        "name": "employee_audit_log.controller",
        "type": "class",
        "value": "foreup\\rest\\controllers\\employee_audit_log"
    },
    {
        "name": "person_altered.controller",
        "type": "class",
        "value": "foreup\\rest\\controllers\\person_altered"
    },
    {
        "name": "account_ledger.controller",
        "type": "class",
        "value": "foreup\\rest\\controllers\\account_ledger"
    },
    {
        "name": "accounts.controller",
        "type": "class",
        "value": "foreup\\rest\\controllers\\accounts"
    },
    {
        "name": "account_types.controller",
        "type": "class",
        "value": "foreup\\rest\\controllers\\account_types"
    },
    {
        "name": "account_type_statements.controller",
        "type": "class",
        "value": "foreup\\rest\\controllers\\account_type_statements"
    },
    {
        "name": "customers.controller",
        "type": "class",
        "value": "foreup\\rest\\controllers\\courses\\customers"
    },
    {
        "name": "customerGroups.controller",
        "type": "class",
        "value": "foreup\\rest\\controllers\\courses\\customers\\groups"
    },
    {
        "name": "customerGroupMembers.controller",
        "type": "class",
        "value": "foreup\\rest\\controllers\\courses\\customers\\group_members"
    },
    {
        "name": "customerSales.controller",
        "type": "class",
        "value": "foreup\\rest\\controllers\\courses\\customers\\sales"
    },
    {
        "name": "items.controller",
        "type": "class",
        "value": "foreup\\rest\\controllers\\courses\\items"
    },
    {
        "name": "inventory.controller",
        "type": "class",
        "value": "foreup\\rest\\controllers\\courses\\inventory"
    },
    {
        "name": "inventoryAudits.controller",
        "type": "class",
        "value": "foreup\\rest\\controllers\\courses\\inventory_audits"
    },
    {
        "name": "terminals.controller",
        "type": "class",
        "value": "foreup\\rest\\controllers\\courses\\terminals"
    },
    {
        "name": "printers.controller",
        "type": "class",
        "value": "foreup\\rest\\controllers\\courses\\printers"
    },
    {
        "name": "priceClasses.controller",
        "type": "class",
        "value": "foreup\\rest\\controllers\\courses\\priceClasses"
    },
    {
        "name": "printerGroups.controller",
        "type": "class",
        "value": "foreup\\rest\\controllers\\courses\\printerGroups"
    },
    {
        "name": "refundReasons.controller",
        "type": "class",
        "value": "foreup\\rest\\controllers\\courses\\refundReasons"
    },
    {
        "name": "customPaymentTypes.controller",
        "type": "class",
        "value": "foreup\\rest\\controllers\\courses\\customPaymentTypes"
    },
    {
        "name": "receiptAgreements.controller",
        "type": "class",
        "value": "foreup\\rest\\controllers\\courses\\receiptAgreements"
    },
    {
        "name": "loyaltyRates.controller",
        "type": "class",
        "value": "foreup\\rest\\controllers\\courses\\loyaltyRates"
    },
    {
        "name": "onlineHours.controller",
        "type": "class",
        "value": "foreup\\rest\\controllers\\courses\\onlineHours"
    },
    {
        "name": "employees.controller",
        "type": "class",
        "value": "foreup\\rest\\controllers\\courses\\employees"
    },
    {
        "name": "courseTeesheets.controller",
        "type": "class",
        "value": "foreup\\rest\\controllers\\courses\\teesheets"
    },
    {
        "name": "coursePageSettings.controller",
        "type": "class",
        "value": "foreup\\rest\\controllers\\courses\\page_settings"
    },
    {
        "name": "courseSettings.controller",
        "type": "class",
        "value": "foreup\\rest\\controllers\\courses\\settings"
    },
    {
        "name": "hooks.controller",
        "type": "class",
        "value": "foreup\\rest\\controllers\\hooks"
    },
    {
        "name": "teesheetBookings.controller",
        "type": "class",
        "value": "foreup\\rest\\controllers\\courses\\teesheets\\bookings"
    },
    {
        "name": "bookedPlayer.controller",
        "type": "class",
        "value": "foreup\\rest\\controllers\\courses\\teesheets\\bookedPlayers"
    },
    {
        "name": "teesheetTeetimes.controller",
        "type": "class",
        "value": "foreup\\rest\\controllers\\courses\\teesheets\\teetimes"
    },
    {
        "name": "carts.controller",
        "type": "class",
        "value": "foreup\\rest\\controllers\\courses\\carts"
    },
    {
        "name": "cartsItems.controller",
        "type": "class",
        "value": "foreup\\rest\\controllers\\courses\\carts\\items"
    },
    {
        "name": "teesheetStats.controller",
        "type": "class",
        "value": "foreup\\rest\\controllers\\courses\\teesheets\\stats"
    },
    {
        "name": "teesheetSeasons.controller",
        "type": "class",
        "value": "foreup\\rest\\controllers\\courses\\teesheets\\seasons"
    },
    {
        "name": "seasonPriceClasses.controller",
        "type": "class",
        "value": "foreup\\rest\\controllers\\courses\\teesheets\\seasons\\priceClasses"
    },
    {
        "name": "seasonTimeframes.controller",
        "type": "class",
        "value": "foreup\\rest\\controllers\\courses\\teesheets\\seasons\\timeframes"
    },
    {
        "name": "reservationGroups.controller",
        "type": "class",
        "value": "foreup\\rest\\controllers\\courses\\teesheets\\reservationGroups"
    },
    {
        "name": "specials.controller",
        "type": "class",
        "value": "foreup\\rest\\controllers\\courses\\teesheets\\specials"
    },
    {
        "name": "accountRecurringCharges.controller",
        "type": "class",
        "value": "foreup\\rest\\controllers\\account_recurring\\accountRecurringCharges"
    },
    {
        "name": "accountRecurringChargeItems.controller",
        "type": "class",
        "value": "foreup\\rest\\controllers\\account_recurring\\accountRecurringChargeItems"
    },
    {
        "name": "accountRecurringChargeGroups.controller",
        "type": "class",
        "value": "foreup\\rest\\controllers\\account_recurring\\accountRecurringChargeGroups"
    },
    {
        "name": "accountRecurringChargeCustomers.controller",
        "type": "class",
        "value": "foreup\\rest\\controllers\\account_recurring\\accountRecurringChargeCustomers"
    },
    {
        "name": "accountRecurringStatements.controller",
        "type": "class",
        "value": "foreup\\rest\\controllers\\account_recurring\\accountRecurringStatements"
    },
    {
        "name": "repeatable.controller",
        "type": "class",
        "value": "foreup\\rest\\controllers\\account_recurring\\repeatable"
    },
    {
        "name": "accountStatements.controller",
        "type": "class",
        "value": "foreup\\rest\\controllers\\accountStatements"
    },
    {
        "name": "bulkEditJobs.controller",
        "type": "class",
        "value": "foreup\\rest\\controllers\\bulk_edit_jobs"
    },
    {
        "name": "auth.user",
        "type": "array",
        "value": ""
    },
    {
        "name": "auth.userObj",
        "type": "class",
        "value": "foreup\\rest\\models\\services\\AuthenticatedUser"
    },
    {
        "name": "user",
        "type": "null",
        "value": ""
    },
    {
        "name": "employee",
        "type": "class",
        "value": "foreup\\rest\\models\\entities\\ForeupEmployees"
    }
]